{
  "navigation" : {
    "Home": {
      "title": "Главная страница",
      "href": "/",
      "subitems": false
    },
    "Catalog" : {
      "title": "Список тахографов",
      "href": "#",
      "subitems": false
    },
    "About" : {
      "title": "Список СКЗИ",
      "href": "#",
      "subitems": false
    },
    "About2" : {
      "title": "Модели оборудования",
      "href": "#",
      "subitems": false
    },
    "About3" : {
      "title": "Помощь в использовании",
      "href": "#",
      "subitems": false
    },
    "About4" : {
      "title": "Задать вопрос",
      "href": "#",
      "subitems": false
    }
  },
  "navigationm" : {
    "Home": {
      "title": "О тахографическом контроле ",
      "href": "/",
      "class": false,
      "img": false,
      "subitems": false
    },
    "Catalog" : {
      "title": "Услуги портала ",
      "href": "#",
      "class": false,
      "img": false,
      "subitems": false
    },
    "About" : {
      "title": "Нормативные документы",
      "href": "#",
      "class": false,
      "img": false,
      "subitems": false
    },
    "About2" : {
      "title": "Вопросы и ответы",
      "href": "#",
      "class": false,
      "img": false,
      "subitems": false
    },
    "About3" : {
      "title": "Где купить и установить",
      "href": "#",
      "class": false,
      "img": false,
      "subitems": false
    },
    "About4" : {
      "title": "Контакты",
      "href": "#",
      "class": false,
      "img": false,
      "subitems": false
    },
    "About5" : {
      "title": " Личный кабинет",
      "img": "images/exit-ico.png",
      "class": true,
      "href": "#",
      "subitems": false
    }
  }
}